<svg xmlns="http://www.w3.org/2000/svg" width="27.375" height="22.661" viewBox="0 0 27.375 22.661">
  <g id="connect" transform="translate(-19.625 -340.83)">
    <g id="Group_198" data-name="Group 198" transform="translate(19.625 349.729)">
      <ellipse id="Ellipse_35" data-name="Ellipse 35" cx="3.828" cy="3.828" rx="3.828" ry="3.828" transform="translate(1.787 1.226) rotate(-9.217)"/>
      <path id="Path_223" data-name="Path 223" d="M17.106,41.622l-.892-.649.6-.571a4.13,4.13,0,0,0-1.6-.32H11.144A4.144,4.144,0,0,0,7,44.226H18.438A3.192,3.192,0,0,0,17.106,41.622Z" transform="translate(-7 -30.464)"/>
      <path id="Path_230" data-name="Path 230" d="M30.1,43.99c-.016-.109-.035-.218-.06-.324-.011-.048-.024-.1-.037-.144q-.043-.16-.1-.315c-.014-.039-.028-.079-.043-.117-.049-.124-.1-.246-.164-.364-.007-.014-.013-.028-.02-.042a4.167,4.167,0,0,0-.863-1.123l-.011-.01a4.2,4.2,0,0,0-.364-.3,4.128,4.128,0,0,0-.836-.475l-.6.571L27.9,42a3.192,3.192,0,0,1,1.331,2.6h.921a4.155,4.155,0,0,0-.029-.472C30.117,44.082,30.108,44.036,30.1,43.99Z" transform="translate(-17.792 -30.839)"/>
    </g>
    <g id="Group_201" data-name="Group 201" transform="translate(31.925 340.83)">
      <path id="Path_245" data-name="Path 245" d="M15.955,2.5H4.136A1.631,1.631,0,0,0,2.5,4.12v8.673a1.627,1.627,0,0,0,1.62,1.62h.747v1.668a1.491,1.491,0,0,0,.921,1.382,1.465,1.465,0,0,0,.572.111,1.5,1.5,0,0,0,1.064-.445L10.157,14.4h5.8a1.627,1.627,0,0,0,1.62-1.62V4.12A1.607,1.607,0,0,0,15.955,2.5Zm.365,10.294a.359.359,0,0,1-.365.365H9.9a.577.577,0,0,0-.445.191L6.535,16.257a.207.207,0,0,1-.254.048.244.244,0,0,1-.143-.222V13.794a.637.637,0,0,0-.635-.635H4.12a.359.359,0,0,1-.365-.365V4.12a.359.359,0,0,1,.365-.365H15.955a.359.359,0,0,1,.365.365Z" transform="translate(-2.5 -2.5)" fill="#202020"/>
      <g id="Group_200" data-name="Group 200" transform="translate(5.212 3.413)">
        <rect id="Rectangle_82" data-name="Rectangle 82" width="1.108" height="5.099" rx="0.554" transform="translate(1.955)" fill="#202020"/>
        <rect id="Rectangle_83" data-name="Rectangle 83" width="1.108" height="5.099" rx="0.554" transform="translate(5.099 1.955) rotate(90)" fill="#202020"/>
      </g>
    </g>
  </g>
</svg>
