<svg xmlns="http://www.w3.org/2000/svg" width="20.735" height="17.58" viewBox="0 0 20.735 17.58">
  <path id="Messages" d="M6.729,17.58h0l.02-.143v-.007q.071-.5.143-1.009a14.534,14.534,0,0,0,0-2.324,6.667,6.667,0,0,1-5.149-2.3A7.124,7.124,0,0,1,.439,9.518,7.645,7.645,0,0,1,0,6.965,7.155,7.155,0,0,1,1.511,2.529,6.952,6.952,0,0,1,6.182,0h8.261A6.914,6.914,0,0,1,19.19,2.543a7.32,7.32,0,0,1,1.546,4.534,6.967,6.967,0,0,1-1.122,3.82,7.316,7.316,0,0,1-3.747,2.868,9.064,9.064,0,0,1-1.587.33H8.972A20.673,20.673,0,0,1,6.73,17.579ZM14.943,5.274A1.23,1.23,0,1,0,16.173,6.5,1.232,1.232,0,0,0,14.943,5.274Zm-4.571,0A1.23,1.23,0,1,0,11.6,6.5,1.232,1.232,0,0,0,10.372,5.274Zm-4.571,0A1.23,1.23,0,1,0,7.032,6.5,1.232,1.232,0,0,0,5.8,5.274Z" fill="#2bc56d"/>
</svg>
