<svg id="noun_college_129978_000000" xmlns="http://www.w3.org/2000/svg" width="26.443" height="21.509" viewBox="0 0 26.443 21.509">
  <path id="Path_65" data-name="Path 65" d="M27.871,51.606l-.613-.306-3.784-1.892.942,5.336a2.129,2.129,0,0,1-3.413,0l.861-6.141-3.19-1.594V52.83c0,3.055,4.217,5.534,9.42,5.534s9.417-2.479,9.417-5.534V46.788L28.483,51.3Z" transform="translate(-14.649 -36.855)" fill="#fff"/>
  <path id="Path_66" data-name="Path 66" d="M27.855,17.849l-8.127-4.064-1.512-.756-1.511.756L9.019,17.627,4.994,19.641l4.025,2.014,3.6,1.8,4.709-4.043a.645.645,0,0,1,.842.978l-4.3,3.69,4.348,2.174,9.639-4.819,3.582-1.792Z" transform="translate(-4.994 -13.029)" fill="#fff"/>
</svg>
