<svg xmlns="http://www.w3.org/2000/svg" width="15.734" height="17.797" viewBox="0 0 15.734 17.797">
  <path id="bell-SIC" d="M1224.921,64.085a1.979,1.979,0,0,0,.7.216c1.409.288,3.232,2.954,3.232,4.107v3.386a5.275,5.275,0,0,0,2.882,4.467v1.153H1216V76.19a5.507,5.507,0,0,0,2.808-4.323V68.408c.074-1.657,2.108-4.179,3.867-4.251v-.5A1.044,1.044,0,0,1,1223.8,62.5C1224.5,62.5,1225.133,62.932,1224.921,64.085Zm.975,14.194V78.5c-.487,1.441-1.261,1.8-2.1,1.8a2.49,2.49,0,0,1-.71-.144,2.789,2.789,0,0,1-1.261-1.3v-.576Z" transform="translate(-1216 -62.5)" fill="#6e6e6e"/>
</svg>
