<svg xmlns="http://www.w3.org/2000/svg" width="142" height="142" viewBox="0 0 142 142">
  <g id="A" transform="translate(-31 -22)">
    <rect id="Rectangle_1" data-name="Rectangle 1" width="142" height="142" transform="translate(31 22)" fill="#1abc9c"/>
    <path id="Path_2" data-name="Path 2" d="M46.166-64.616H17.384v7.872H21.73L6.724-11.644H3.772v7.872H22.386v-7.872H18.7L22.222-22.3H40.836l3.526,10.66H40.59v7.872h18.7v-7.872h-2.87l-15.088-45.1h4.838ZM24.026-27.88l7.462-22.386L38.95-27.88Z" transform="translate(70.228 127.616)" fill="#fff"/>
  </g>
</svg>
