<svg xmlns="http://www.w3.org/2000/svg" width="142" height="142" viewBox="0 0 142 142">
  <g id="G" transform="translate(-1071 -22)">
    <rect id="Rectangle_7" data-name="Rectangle 7" width="142" height="142" transform="translate(1071 22)" fill="#ff9853"/>
    <path id="Path_27" data-name="Path 27" d="M48.052-12.792V-34.276H31.734v6.56h5v11.89l-4.182,4.182H19.27l-4.264-4.182V-52.48l4.264-4.264H32.554l4.182,4.264v6.642H48.052V-55.6l-9.02-9.02H12.792L3.772-55.6v42.8l9.02,9.02h26.24Z" transform="translate(1116.228 127.616)" fill="#fff"/>
  </g>
</svg>
