<svg xmlns="http://www.w3.org/2000/svg" width="142" height="142" viewBox="0 0 142 142">
  <g id="J" transform="translate(-1589 -22)">
    <rect id="Rectangle_10" data-name="Rectangle 10" width="142" height="142" transform="translate(1589 22)" fill="#2980b9"/>
    <path id="Path_51" data-name="Path 51" d="M31.816-56.744v40.918l-4.264,4.182H19.27l-4.264-4.182V-23.7H3.772v11.562l9.02,9.02H34.03l9.02-9.02V-56.744h4.1v-7.872H25.994v7.872Z" transform="translate(1634.228 126.616)" fill="#fff"/>
  </g>
</svg>
