<svg xmlns="http://www.w3.org/2000/svg" width="142" height="142" viewBox="0 0 142 142">
  <g id="M" transform="translate(-383 -189)">
    <rect id="Rectangle_13" data-name="Rectangle 13" width="142" height="142" transform="translate(383 189)" fill="#b88acb"/>
    <path id="Path_14" data-name="Path 14" d="M56.58-64.616,37.8-33.292,19.024-64.616H3.772v7.872h4.1v45.1h-4.1v7.872H23.206v-7.872h-4.1V-45.92L37.8-14.842,56.416-45.92v34.276h-4.1v7.872H71.832v-7.872h-4.1v-45.1h4.1v-7.872Z" transform="translate(416.228 294.616)" fill="#fff"/>
  </g>
</svg>
