<svg xmlns="http://www.w3.org/2000/svg" width="142" height="142" viewBox="0 0 142 142">
  <g id="P" transform="translate(-901 -189)">
    <rect id="Rectangle_16" data-name="Rectangle 16" width="142" height="142" transform="translate(901 189)" fill="#5b88b4"/>
    <path id="Path_24" data-name="Path 24" d="M40.426-29.684l9.02-9.02V-55.6l-9.02-9.02H3.772v7.872h4.1v45.1h-4.1v7.872H23.206v-7.872h-4.1v-18.04Zm-6.478-7.872H19.106V-56.744H33.948l4.264,4.264v10.742Z" transform="translate(945.228 294.616)" fill="#fff"/>
  </g>
</svg>
