<svg xmlns="http://www.w3.org/2000/svg" width="142" height="142" viewBox="0 0 142 142">
  <g id="U" transform="translate(-31 -369)">
    <rect id="Rectangle_21" data-name="Rectangle 21" width="142" height="142" transform="translate(31 369)" fill="#d870ad"/>
    <path id="Path_39" data-name="Path 39" d="M52.316-12.792V-56.744h4.1v-7.872H36.9v7.872H41v40.918l-4.264,4.182H23.37l-4.264-4.182V-56.744h4.1v-7.872H3.772v7.872h4.1v43.952l9.02,9.02H43.3Z" transform="translate(72.228 474.616)" fill="#fff"/>
  </g>
</svg>
